{
    "todos": [{
            "id": 1,
            "title": "Hit the gym",
            "done": false
        },
        {
            "title": "Pay bills",
            "done": true,
            "id": 2
        }
    ]
}